C:\Users\dima\IdeaProjects\Bones\src\main\java\by\bsu\grabar\entity\Game.java
C:\Users\dima\IdeaProjects\Bones\src\main\java\by\bsu\grabar\command\Command.java
C:\Users\dima\IdeaProjects\Bones\src\main\java\by\bsu\grabar\command\action\LogoutCommand.java
C:\Users\dima\IdeaProjects\Bones\src\main\java\by\bsu\grabar\util\Encryption.java
C:\Users\dima\IdeaProjects\Bones\src\main\java\by\bsu\grabar\entity\Message.java
C:\Users\dima\IdeaProjects\Bones\src\main\java\by\bsu\grabar\command\action\ChangeLangCommand.java
C:\Users\dima\IdeaProjects\Bones\src\main\java\by\bsu\grabar\pool\ConnectionPool.java
C:\Users\dima\IdeaProjects\Bones\src\main\java\by\bsu\grabar\bot\Skynet.java
C:\Users\dima\IdeaProjects\Bones\src\main\java\by\bsu\grabar\command\action\MainPageCommand.java
C:\Users\dima\IdeaProjects\Bones\src\main\java\by\bsu\grabar\manager\MessageManager.java
C:\Users\dima\IdeaProjects\Bones\src\main\java\by\bsu\grabar\command\action\EventCommand.java
C:\Users\dima\IdeaProjects\Bones\src\main\java\by\bsu\grabar\entity\User.java
C:\Users\dima\IdeaProjects\Bones\src\main\java\by\bsu\grabar\error\DAOException.java
C:\Users\dima\IdeaProjects\Bones\src\main\java\by\bsu\grabar\util\Validator.java
C:\Users\dima\IdeaProjects\Bones\src\main\java\by\bsu\grabar\command\action\RegistrationCommand.java
C:\Users\dima\IdeaProjects\Bones\src\main\java\by\bsu\grabar\entity\UserEnum.java
C:\Users\dima\IdeaProjects\Bones\src\main\java\by\bsu\grabar\command\action\CommandManager.java
C:\Users\dima\IdeaProjects\Bones\src\main\java\by\bsu\grabar\command\action\LoginCommand.java
C:\Users\dima\IdeaProjects\Bones\src\main\java\by\bsu\grabar\dao\IUserDao.java
C:\Users\dima\IdeaProjects\Bones\src\main\java\by\bsu\grabar\dao\UserDao.java
C:\Users\dima\IdeaProjects\Bones\src\main\java\by\bsu\grabar\manager\ConfigurationManager.java
C:\Users\dima\IdeaProjects\Bones\src\main\java\by\bsu\grabar\manager\PageManager.java
C:\Users\dima\IdeaProjects\Bones\src\main\java\by\bsu\grabar\error\ConnectionPoolException.java
C:\Users\dima\IdeaProjects\Bones\src\main\java\by\bsu\grabar\tag\DateTag.java
C:\Users\dima\IdeaProjects\Bones\src\main\java\by\bsu\grabar\pool\ProxyConnection.java
C:\Users\dima\IdeaProjects\Bones\src\main\java\by\bsu\grabar\service\AccountService.java
C:\Users\dima\IdeaProjects\Bones\src\main\java\by\bsu\grabar\servlet\Controller.java
C:\Users\dima\IdeaProjects\Bones\src\main\java\by\bsu\grabar\dao\GenericDao.java
C:\Users\dima\IdeaProjects\Bones\src\main\java\by\bsu\grabar\exception\ServiceException.java
